A&E Investigation
…
- Suggesting the type of healthcare required for people during COVID lockdowns wasn't A&E.
---

<img src="presentation_files/figure-html/covid reg-1.png" width="80%" />

```r
AandE$Z_Score_Within4Hours <- scale(AandE$PercentageWithin4HoursEpisode)
outlier_threshold <- 3
outliers_within4hours <- AandE[abs(AandE$Z_Score_Within4Hours) > outlier_threshold, ]
print(outliers_within4hours)
```

```
## # A tibble: 299 × 14
##    `_id` HBT     TreatmentLocation NumberOfAttendancesE…¹ NumberWithin4HoursEp…²
##    <dbl> <chr>   <chr>                              <dbl>                  <dbl>
##  1 10302 S08000… G405H                               1674                    750
##  2 10386 S08000… V217H                               1180                    575
##  3 10416 S08000… V217H                               1161                    475
##  4 10446 S08000… V217H                               1164                    548
##  5 10482 S08000… G405H                               1695                    803
##  6 10626 S08000… V217H                               1079                    478
##  7 10656 S08000… V217H                               1119                    539
##  8 10657 S08000… N101H                                967                    466
##  9 10686 S08000… V217H                               1103                    551
## 10 10703 S08000… S314H                               2247                   1138
## # ℹ 289 more rows
## # ℹ abbreviated names: ¹​NumberOfAttendancesEpisode, ²​NumberWithin4HoursEpisode
## # ℹ 9 more variables: NumberOver4HoursEpisode <dbl>,
## #   PercentageWithin4HoursEpisode <dbl>, NumberOver8HoursEpisode <dbl>,
## #   PercentageOver8HoursEpisode <dbl>, NumberOver12HoursEpisode <dbl>,
## #   PercentageOver12HoursEpisode <dbl>, weekend_date_correct <date>,
## #   quarter <dbl>, Z_Score_Within4Hours <dbl[,1]>
```
…
