Xarnigan practice
…
```r
AandE %>% 
  group_by(TreatmentLocation) %>% 
  summarise(
    avg_pct_Within4 = mean(PercentageWithin4HoursEpisode),
    avg_pct_Over8 = mean(PercentageOver8HoursEpisode),
    avg_pct_Over12 = mean(PercentageOver12HoursEpisode)
    )
```

```
## # A tibble: 32 × 4
##    TreatmentLocation avg_pct_Within4 avg_pct_Over8 avg_pct_Over12
##    <chr>                       <dbl>         <dbl>          <dbl>
##  1 A111H                        85.8         5.31          2.87  
##  2 A210H                        82.9         6.40          3.38  
##  3 B120H                        85.1         4.19          2.46  
##  4 C121H                        95.9         0.286         0.0608
##  5 C313H                        88.9         1.18          0.217 
##  6 C418H                        81.4         4.07          0.844 
##  7 F704H                        86.1         2.31          0.503 
##  8 G107H                        80.6         2.88          0.498 
##  9 G306H                        84.0         2.1           0.446 
## 10 G405H                        75.8         4.17          0.971 
## # ℹ 22 more rows
```
…
